{
  "project_info": {
    "project_number": "997586797788",
    "project_id": "gold-episode-127009",
    "storage_bucket": "gold-episode-127009.appspot.com"
  },
  "client": [
    {
      "client_info": {
        "mobilesdk_app_id": "1:997586797788:android:5bfa38a707cf4b5ba6e019",
        "android_client_info": {
          "package_name": "com.example.demo.flutterdemo"
        }
      },
      "oauth_client": [
        {
          "client_id": "997586797788-k1g1a4url0e14t7e4ed6de6255kr3d23.apps.googleusercontent.com",
          "client_type": 3
        }
      ],
      "api_key": [
        {
          "current_key": "AIzaSyCbP1ZxxhzMGXKPCogxRzNf1f8P14HU-uI"
        }
      ],
      "services": {
        "appinvite_service": {
          "other_platform_oauth_client": [
            {
              "client_id": "997586797788-k1g1a4url0e14t7e4ed6de6255kr3d23.apps.googleusercontent.com",
              "client_type": 3
            },
            {
              "client_id": "997586797788-v0a37i12q3k59bilsmtek9pcodr7e4u3.apps.googleusercontent.com",
              "client_type": 2,
              "ios_info": {
                "bundle_id": "com.example.demo.flutterdemo"
              }
            }
          ]
        }
      }
    },
    {
      "client_info": {
        "mobilesdk_app_id": "1:997586797788:android:afe8a33ba2e422c4a6e019",
        "android_client_info": {
          "package_name": "com.example.flutter_assignment"
        }
      },
      "oauth_client": [
        {
          "client_id": "997586797788-049pgthutq08vogv51p8g6kiajp0tris.apps.googleusercontent.com",
          "client_type": 1,
          "android_info": {
            "package_name": "com.example.flutter_assignment",
            "certificate_hash": "288db7e46b797b83b0e208daa331abbd5db16829"
          }
        },
        {
          "client_id": "997586797788-k1g1a4url0e14t7e4ed6de6255kr3d23.apps.googleusercontent.com",
          "client_type": 3
        }
      ],
      "api_key": [
        {
          "current_key": "AIzaSyCbP1ZxxhzMGXKPCogxRzNf1f8P14HU-uI"
        }
      ],
      "services": {
        "appinvite_service": {
          "other_platform_oauth_client": [
            {
              "client_id": "997586797788-k1g1a4url0e14t7e4ed6de6255kr3d23.apps.googleusercontent.com",
              "client_type": 3
            },
            {
              "client_id": "997586797788-v0a37i12q3k59bilsmtek9pcodr7e4u3.apps.googleusercontent.com",
              "client_type": 2,
              "ios_info": {
                "bundle_id": "com.example.demo.flutterdemo"
              }
            }
          ]
        }
      }
    },
    {
      "client_info": {
        "mobilesdk_app_id": "1:997586797788:android:017d2eabfbf75531a6e019",
        "android_client_info": {
          "package_name": "com.example.testproject"
        }
      },
      "oauth_client": [
        {
          "client_id": "997586797788-k1g1a4url0e14t7e4ed6de6255kr3d23.apps.googleusercontent.com",
          "client_type": 3
        }
      ],
      "api_key": [
        {
          "current_key": "AIzaSyCbP1ZxxhzMGXKPCogxRzNf1f8P14HU-uI"
        }
      ],
      "services": {
        "appinvite_service": {
          "other_platform_oauth_client": [
            {
              "client_id": "997586797788-k1g1a4url0e14t7e4ed6de6255kr3d23.apps.googleusercontent.com",
              "client_type": 3
            },
            {
              "client_id": "997586797788-v0a37i12q3k59bilsmtek9pcodr7e4u3.apps.googleusercontent.com",
              "client_type": 2,
              "ios_info": {
                "bundle_id": "com.example.demo.flutterdemo"
              }
            }
          ]
        }
      }
    },
    {
      "client_info": {
        "mobilesdk_app_id": "1:997586797788:android:81a111a4b9de6bc0a6e019",
        "android_client_info": {
          "package_name": "com.example.topnews"
        }
      },
      "oauth_client": [
        {
          "client_id": "997586797788-k1g1a4url0e14t7e4ed6de6255kr3d23.apps.googleusercontent.com",
          "client_type": 3
        }
      ],
      "api_key": [
        {
          "current_key": "AIzaSyCbP1ZxxhzMGXKPCogxRzNf1f8P14HU-uI"
        }
      ],
      "services": {
        "appinvite_service": {
          "other_platform_oauth_client": [
            {
              "client_id": "997586797788-k1g1a4url0e14t7e4ed6de6255kr3d23.apps.googleusercontent.com",
              "client_type": 3
            },
            {
              "client_id": "997586797788-v0a37i12q3k59bilsmtek9pcodr7e4u3.apps.googleusercontent.com",
              "client_type": 2,
              "ios_info": {
                "bundle_id": "com.example.demo.flutterdemo"
              }
            }
          ]
        }
      }
    }
  ],
  "configuration_version": "1"
}